Year,USD Value,Inflation Rate
1968,104005.41,4.01
1969,110446.55,6.19
1970,118105.55,6.93
1971,123355.89,4.45
1972,128146.14,3.88
1973,133721.24,4.35
1974,148741.54,11.23
1975,164438.43,10.55
1976,174533.15,6.14
1977,186441.14,6.82
1978,202760.49,8.75
1979,227496.62,12.20
1980,263193.50,15.69
1981,293477.67,11.51
1982,314641.41,7.21
1983,323031.12,2.67
1984,336481.73,4.16
1985,349797.02,3.96
1986,360135.32,2.96
1987,371096.08,3.04
1988,384844.38,3.70
1989,399458.73,3.80
1990,417483.09,4.51
1991,433883.63,3.93
1992,446522.33,2.91
1993,458646.82,2.72
1994,470175.91,2.51
1995,482083.90,2.53
1996,496211.10,2.93
1997,509201.62,2.62
1998,520838.97,2.29
1999,532286.87,2.20
2000,550717.19,3.46
2001,572719.89,4.00
2002,585412.72,2.22
2003,600162.38,2.52
2004,615561.57,2.57
2005,635615.70,3.26
2006,659783.49,3.80
2007,680647.09,3.16
2008,702316.91,3.18
2009,704923.95,0.37
2010,702311.77,-0.37
2011,711569.96,1.32
2012,723292.56,1.65
2013,738348.31,2.08
2014,757395.67,2.58
2015,773134.24,2.08
2016,792338.02,2.48
2017,815904.19,2.97
2018,839445.47,2.89
